{
	"bounceddirectmode":	"uniform",
	"diffusemultibounce":	true,
	"directmode":	"all",
	"general":	{
		"height":	1024,
		"parallel":	true,
		"width":	1024
	},
	"imagesampling":	{
		"batchsamples":	4,
		"blocksize":	64,
		"generatortype":	"random",
		"maxsamples":	256
	},
	"maxdepth":	2,
	"type":	"bidirrenderopts"
}