{
	"batchsamples":	1,
	"blocksize":	64,
	"bootstrapsamples":	100000,
	"diffusemultibounce":	false,
	"general":	{
		"height":	1024,
		"parallel":	true,
		"width":	1024
	},
	"generatortype":	"random",
	"maxdepth":	16,
	"mcsamples":	16,
	"mis":	false,
	"mutations":	16,
	"type":	"erptrenderopts"
}