{
	"arealightsamples":	1024,
	"diffusemultibounce":	false,
	"envlightsamples":	8192,
	"general":	{
		"height":	512,
		"parallel":	true,
		"width":	512
	},
	"generatortype":	"pixelsobol",
	"geoclamp":	0.100000,
	"imagesampling":	{
		"batchsamples":	4,
		"blocksize":	64,
		"generatortype":	"random",
		"maxsamples":	256
	},
	"indirectlightbatchsize":	5000,
	"indirectlightsamples":	500000,
	"maxdepth":	16,
	"passes":	512,
	"type":	"gligirenderopts"
}